#en
af
sq
am
ar
hy
hy_AM
ast
eu
be
bn
bs
#bs_BA
bg
my
#yue_CN
ca
ceb
zh_CN
zh_HK
zh_TW
co
hr
cs
da
nl
nl_BE
hye
en_GB
#en_US
eo
et
fil
fil_PH
fi
#fi_FI
fr
fr_BE
#fr_FR
gd
gl
gl_ES
ka
de
el
gu
ht
ha
haw
he
he_IL
hi
hu
is
id
ie
ga
it
ja
jv
#kab
kn
kk
km
rw
ko
ku
ky
lo
lv
lt
lb
mk
mg
ms
ml
mt
mi
mr
mn
ne
nb
#nb_NO
nn
ny
oc
or
pa
ps
fa
pl
pt
pt_BR
ro
ru
ru_RU
rue
sm
sr
sn
sd
si
sk
sl
so
st
es
es_ES
su
sw
sv
tg
ta
tt
te
th
tr
tk
uk
ur
ug
uz
vi
cy
fy
xh
yi
yo
